{
    "name": "org/autoupdate",
    "description": "This extension provides new commands for Drush.",
    "type": "drupal-drush",
    "authors": [
        {
            "name": "Author name",
            "email": "author@example.com"
        }
    ],
    "require": {
        "php": ">=5.6.0"
    },
    "extra": {
        "drush": {
            "services": {
                "drush.services.yml": "^9"
            }
        }
    }
}